备砖： 用R进行数据管理
…
arrange(): 案例排序

字符串处理

日期处理

tibbles 数据框

data.frame基础做了针对性的改进。无行名，不修改变量类型，灵活列印,索引方便等等。继承了data.frame的其他多数特性。

library(tidyverse)
as_tibble(iris)

## # A tibble: 150 x 5
##    Sepal.Length Sepal.Width Petal.Length Petal.Width Species
##           <dbl>       <dbl>        <dbl>       <dbl> <fct>  
##  1          5.1         3.5          1.4         0.2 setosa 
##  2          4.9         3            1.4         0.2 setosa 
##  3          4.7         3.2          1.3         0.2 setosa 
##  4          4.6         3.1          1.5         0.2 setosa 
##  5          5           3.6          1.4         0.2 setosa 
##  6          5.4         3.9          1.7         0.4 setosa 
##  7          4.6         3.4          1.4         0.3 setosa 
##  8          5           3.4          1.5         0.2 setosa 
##  9          4.4         2.9          1.4         0.2 setosa 
## 10          4.9         3.1          1.5         0.1 setosa 
## # … with 140 more rows
…
能同时设定多个筛选条件

# 读入数据
bike <- read_delim("../data/nc_bike_crash.csv", ";", 
    escape_double = FALSE, trim_ws = TRUE)

筛选个案 filter()

选出Durham县发生的与自行车相关的交通事故 注意：== | & > < >= <= != 等比较符号。

bike %>%
  filter(County == "Durham")

## # A tibble: 253 x 54
##      FID OBJECTID AmbulanceR BikeAge_Gr Bike_Age Bike_Alc_D Bike_Dir
##    <dbl>    <dbl> <chr>      <chr>         <dbl> <chr>      <chr>   
##  1    18       19 No         <NA>              6 No         Not App…
##  2    53       54 Yes        50-59            52 No         With Tr…
##  3    56       57 Yes        16-19            18 No         <NA>    
##  4   209      210 No         16-19            16 No         Facing …
##  5   228      229 Yes        40-49            40 No         With Tr…
##  6   620      621 Yes        50-59            55 No         With Tr…
##  7   667      668 Yes        60-69            61 No         Not App…
##  8   458      459 Yes        60-69            62 No         With Tr…
##  9   576      577 No         40-49            49 No         With Tr…
## 10   618      619 No         20-24            23 No         With Tr…
## # … with 243 more rows, and 47 more variables: Bike_Injur <chr>,
## #   Bike_Pos <chr>, Bike_Race <chr>, Bike_Sex <chr>, City <chr>,
## #   County <chr>, CrashAlcoh <chr>, CrashDay <chr>, Crash_Date <date>,
## #   Crash_Grp <chr>, Crash_Hour <dbl>, Crash_Loc <chr>, Crash_Mont <chr>,
## #   Crash_Time <dttm>, Crash_Type <chr>, Crash_Ty_1 <dbl>,
## #   Crash_Year <dbl>, Crsh_Sevri <chr>, Developmen <chr>,
## #   DrvrAge_Gr <chr>, Drvr_Age <dbl>, Drvr_Alc_D <chr>, Drvr_EstSp <chr>,
## #   Drvr_Injur <chr>, Drvr_Race <chr>, Drvr_Sex <chr>, Drvr_VehTy <chr>,
## #   ExcsSpdInd <chr>, Hit_Run <chr>, Light_Cond <chr>, Locality <chr>,
…
## [1] 1 3 1

# 平均多少个元音
mean(str_count(words, "[aeiou]"))

## [1] 1.991837

wddf %>% 
  mutate(
    vowels = str_count(word, "[aeiou]"),
    consonants = str_count(word, "[^aeiou]")
  )

## # A tibble: 980 x 4
##    word         i vowels consonants
##    <chr>    <int>  <int>      <int>
##  1 a            1      1          0
##  2 able         2      2          2
##  3 about        3      3          2
##  4 absolute     4      4          4
##  5 accept       5      2          4
##  6 account      6      3          4
##  7 achieve      7      4          3
##  8 across       8      2          4
##  9 act          9      1          2
## 10 active      10      3          3
## # … with 970 more rows
…
